{
    "appName": "beanbudauth",
    "roleName": "pinpointLambdaRolef5a7a83c",
    "cloudformationPolicyName": "cloudformationPolicyf5a7a83c",
    "cloudWatchPolicyName": "cloudWatchPolicyf5a7a83c",
    "pinpointPolicyName": "pinpointPolicyf5a7a83c",
    "authPolicyName": "pinpoint_amplify_f5a7a83c",
    "unauthPolicyName": "pinpoint_amplify_f5a7a83c",
    "authRoleName": {
        "Ref": "AuthRoleName"
    },
    "unauthRoleName": {
        "Ref": "UnauthRoleName"
    },
    "authRoleArn": {
        "Fn::GetAtt": [
            "AuthRole",
            "Arn"
        ]
    }
}